<?xml version="1.0" encoding="UTF-8" standalone="no"?>
<svg
   xmlns:dc="http://purl.org/dc/elements/1.1/"
   xmlns:cc="http://creativecommons.org/ns#"
   xmlns:rdf="http://www.w3.org/1999/02/22-rdf-syntax-ns#"
   xmlns:svg="http://www.w3.org/2000/svg"
   xmlns="http://www.w3.org/2000/svg"
   xmlns:sodipodi="http://sodipodi.sourceforge.net/DTD/sodipodi-0.dtd"
   xmlns:inkscape="http://www.inkscape.org/namespaces/inkscape"
   version="1.1"
   viewBox="0 0 475.847 461.7291"
   stroke-miterlimit="10"
   id="svg2"
   inkscape:version="0.92.5 (0.92.5+68)"
   sodipodi:docname="robot_robot.svg"
   width="475.84698cm"
   height="461.7291cm"
   style="fill:none;stroke:none;stroke-linecap:square;stroke-miterlimit:10"
   inkscape:export-filename="/home/xia0ben/INRIA/Papers/ICRA 2022/fig1/scenario_at_start.png"
   inkscape:export-xdpi="10"
   inkscape:export-ydpi="10">
  <metadata
     id="metadata41">
    <rdf:RDF>
      <cc:Work
         rdf:about="">
        <dc:format>image/svg+xml</dc:format>
        <dc:type
           rdf:resource="http://purl.org/dc/dcmitype/StillImage" />
        <dc:title />
      </cc:Work>
    </rdf:RDF>
  </metadata>
  <defs
     id="defs39" />
  <sodipodi:namedview
     pagecolor="#ffffff"
     bordercolor="#666666"
     borderopacity="1"
     objecttolerance="10"
     gridtolerance="10"
     guidetolerance="10"
     inkscape:pageopacity="0"
     inkscape:pageshadow="2"
     inkscape:window-width="640"
     inkscape:window-height="480"
     id="namedview37"
     showgrid="false"
     inkscape:zoom="0.03125"
     inkscape:cx="6990.801"
     inkscape:cy="5514.1871"
     inkscape:current-layer="svg2"
     fit-margin-top="0"
     fit-margin-left="0"
     fit-margin-right="0"
     fit-margin-bottom="0"
     inkscape:document-units="cm"
     units="cm"
     inkscape:snap-page="true"
     inkscape:snap-global="true" />
  <path
     style="fill:#000000;fill-opacity:1;stroke:none;stroke-width:3.13452744px;stroke-linecap:butt;stroke-linejoin:miter;stroke-opacity:1"
     d="M 235.42803,0 H 0 v 17.51611 h 235.42803 z"
     id="wall_top_left"
     inkscape:connector-curvature="0"
     sodipodi:nodetypes="ccccc"
     inkscape:label="#path3336-6-3" />
  <path
     style="fill:#000000;fill-opacity:1;stroke:none;stroke-width:3.13452744px;stroke-linecap:butt;stroke-linejoin:miter;stroke-opacity:1"
     d="M 181.67648,132.43893 H 18.312989 V 441.36662 H 456.66197 V 131.27536 H 293.2985 V 113.8218 H 475.847 V 461.72909 H 0.872048 V 113.24002 H 181.64122 Z"
     id="wall_bottom"
     inkscape:connector-curvature="0"
     sodipodi:nodetypes="ccccccccccccc"
     inkscape:label="#path4149" />
  <path
     style="fill:#000000;fill-opacity:1;stroke:none;stroke-width:3.13452744px;stroke-linecap:butt;stroke-linejoin:miter;stroke-miterlimit:10;stroke-opacity:1"
     d="M 475.83554,0.004709 H 353.11066 v 17.516109 h 122.72488 z"
     id="wall_top_right"
     inkscape:connector-curvature="0"
     sodipodi:nodetypes="ccccc"
     inkscape:label="#path3336-6-3" />
  <g
     id="robot_0">
    <path
       style="fill:#6d9eeb;fill-opacity:1;stroke:none;stroke-width:0;stroke-linecap:square;stroke-miterlimit:10;stroke-opacity:1"
       id="robot_0_shape"
       d="m 72.069503,43.776374 c 0,0 8.954298,0.840751 8.954298,0.840751 0,0 7.950944,4.203432 7.950944,4.203432 0,0 5.737154,6.926138 5.737154,6.926138 0,0 2.64991,8.594433 2.64991,8.594433 0,0 -0.84075,8.95429 -0.84075,8.95429 0,0 -4.203434,7.950947 -4.203434,7.950947 0,0 -6.926142,5.737147 -6.926142,5.737147 0,0 -8.594433,2.64991 -8.594433,2.64991 0,0 -8.95429,-0.840751 -8.95429,-0.840751 0,0 -7.950947,-4.203433 -7.950947,-4.203433 0,0 -5.737147,-6.926138 -5.737147,-6.926138 0,0 -2.649909,-8.594433 -2.649909,-8.594433 0,0 0.840751,-8.95429 0.840751,-8.95429 0,0 4.203432,-7.950947 4.203432,-7.950947 0,0 6.926138,-5.737146 6.926138,-5.737146 0,0 8.594425,-2.64991 8.594425,-2.64991"
       inkscape:connector-curvature="0" />
    <path
       style="fill:none;stroke:#1155cc;stroke-width:8.75224018;stroke-linecap:butt;stroke-linejoin:miter;stroke-miterlimit:10;stroke-dasharray:none;stroke-opacity:1"
       d="M 74.151308,66.812314 H 95.577849"
       id="robot_0_direction"
       inkscape:connector-curvature="0"
       sodipodi:nodetypes="cc"
       inkscape:label="#path4217" />
  </g>
  <g
     id="robot_0_goal_0">
    <path
       style="fill:none;stroke:#1155cc;stroke-width:8.75224018;stroke-linecap:butt;stroke-linejoin:miter;stroke-miterlimit:10;stroke-dasharray:none;stroke-opacity:1"
       id="robot_0_goal_0_shape"
       d="m 400.69467,368.3976 c 0,0 8.95429,0.84075 8.95429,0.84075 0,0 7.95095,4.20343 7.95095,4.20343 0,0 5.73715,6.92614 5.73715,6.92614 0,0 2.64991,8.59443 2.64991,8.59443 0,0 -0.84075,8.95429 -0.84075,8.95429 0,0 -4.20344,7.95095 -4.20344,7.95095 0,0 -6.92613,5.73715 -6.92613,5.73715 0,0 -8.59444,2.64991 -8.59444,2.64991 0,0 -8.95429,-0.84075 -8.95429,-0.84075 0,0 -7.95094,-4.20344 -7.95094,-4.20344 0,0 -5.73715,-6.92613 -5.73715,-6.92613 0,0 -2.64991,-8.59444 -2.64991,-8.59444 0,0 0.84075,-8.95429 0.84075,-8.95429 0,0 4.20343,-7.95094 4.20343,-7.95094 0,0 6.92614,-5.73715 6.92614,-5.73715 0,0 8.59443,-2.64991 8.59443,-2.64991"
       inkscape:connector-curvature="0" />
    <path
       style="fill:none;stroke:#1155cc;stroke-width:8.75224018;stroke-linecap:butt;stroke-linejoin:miter;stroke-miterlimit:10;stroke-dasharray:none;stroke-opacity:1"
       d="M 402.77647,391.43354 H 424.203"
       id="robot_0_goal_0_direction"
       inkscape:connector-curvature="0"
       sodipodi:nodetypes="cc"
       inkscape:label="#path4217" />
  </g>
  <g
     id="robot_1">
    <path
       style="fill:#eb6ddd;fill-opacity:1;stroke:none;stroke-width:0;stroke-linecap:square;stroke-miterlimit:10;stroke-opacity:1"
       id="robot_1_shape"
       d="m 320.87687,204.11471 c 0,0 -8.95429,-0.84075 -8.95429,-0.84075 0,0 -7.95095,-4.20343 -7.95095,-4.20343 0,0 -5.73715,-6.92614 -5.73715,-6.92614 0,0 -2.64991,-8.59443 -2.64991,-8.59443 0,0 0.84075,-8.95429 0.84075,-8.95429 0,0 4.20344,-7.95095 4.20344,-7.95095 0,0 6.92613,-5.73715 6.92613,-5.73715 0,0 8.59444,-2.64991 8.59444,-2.64991 0,0 8.95429,0.84075 8.95429,0.84075 0,0 7.95094,4.20344 7.95094,4.20344 0,0 5.73715,6.92613 5.73715,6.92613 0,0 2.64991,8.59444 2.64991,8.59444 0,0 -0.84075,8.95429 -0.84075,8.95429 0,0 -4.20343,7.95094 -4.20343,7.95094 0,0 -6.92614,5.73715 -6.92614,5.73715 0,0 -8.59443,2.64991 -8.59443,2.64991"
       inkscape:connector-curvature="0" />
    <path
       style="fill:none;stroke:#cc11b2;stroke-width:8.75224018;stroke-linecap:butt;stroke-linejoin:miter;stroke-miterlimit:10;stroke-dasharray:none;stroke-opacity:1"
       d="M 318.79507,181.07877 H 297.36854"
       id="robot_1_direction"
       inkscape:connector-curvature="0"
       sodipodi:nodetypes="cc"
       inkscape:label="#path4217" />
  </g>
  <g
     id="robot_1_goal_0">
    <path
       style="fill:none;stroke:#cc11b2;stroke-width:8.75224018;stroke-linecap:butt;stroke-linejoin:miter;stroke-miterlimit:10;stroke-dasharray:none;stroke-opacity:1"
       id="robot_1_goal_0_shape"
       d="m 149.18406,204.65166 c 0,0 -8.95429,-0.84075 -8.95429,-0.84075 0,0 -7.95095,-4.20343 -7.95095,-4.20343 0,0 -5.73715,-6.92614 -5.73715,-6.92614 0,0 -2.64991,-8.59444 -2.64991,-8.59444 0,0 0.84075,-8.95428 0.84075,-8.95428 0,0 4.20344,-7.95095 4.20344,-7.95095 0,0 6.92613,-5.73715 6.92613,-5.73715 0,0 8.59444,-2.64991 8.59444,-2.64991 0,0 8.95429,0.84075 8.95429,0.84075 0,0 7.95094,4.20344 7.95094,4.20344 0,0 5.73715,6.92613 5.73715,6.92613 0,0 2.64991,8.59444 2.64991,8.59444 0,0 -0.84075,8.95429 -0.84075,8.95429 0,0 -4.20343,7.95094 -4.20343,7.95094 0,0 -6.92614,5.73715 -6.92614,5.73715 0,0 -8.59443,2.64991 -8.59443,2.64991"
       inkscape:connector-curvature="0" />
    <path
       style="fill:none;stroke:#cc11b2;stroke-width:8.75224018;stroke-linecap:butt;stroke-linejoin:miter;stroke-miterlimit:10;stroke-dasharray:none;stroke-opacity:1"
       d="M 147.10226,181.61572 H 125.67573"
       id="robot_1_goal_0_direction"
       inkscape:connector-curvature="0"
       sodipodi:nodetypes="cc"
       inkscape:label="#path4217" />
  </g>
</svg>
